module hello.com/quic

go 1.19

require github.com/lucas-clemente/quic-go v0.30.0

require (
	github.com/go-task/slim-sprig v0.0.0-20210107165309-348f09dbbbc0 // indirect
	github.com/golang/mock v1.6.0 // indirect
	github.com/google/pprof v0.0.0-20210407192527-94a9f03dee38 // indirect
	github.com/marten-seemann/qtls-go1-18 v0.1.3 // indirect
	github.com/marten-seemann/qtls-go1-19 v0.1.1 // indirect
	github.com/onsi/ginkgo/v2 v2.2.0 // indirect
	golang.org/x/crypto v0.0.0-20210921155107-089bfa567519 // indirect
	golang.org/x/exp v0.0.0-20220722155223-a9213eeb770e // indirect
	golang.org/x/mod v0.6.0-dev.0.20220419223038-86c51ed26bb4 // indirect
	golang.org/x/net v0.0.0-20220722155237-a158d28d115b // indirect
	golang.org/x/sys v0.0.0-20220722155257-8c9f86f7a55f // indirect
	golang.org/x/tools v0.1.12 // indirect
)
